…
b) Datos nivel 2 externos

Para esto usaremos la base del Quality of Government Indicators (QoG). La base es algo pesada, bajar directamente del sitio original: http://www.qogdata.pol.gu.se/data/qog_std_ts_jan17.dta

qog=read_stata("/media/ntfs/Dropbox/proyectos y papers compartidos/Meritocracy and preferences/meritocracy_pref_international/data/qog/qog_std_ts_jan17.dta")

dim(qog) # tenemos 2070 variables para 14981 filas (pases/aos)

## [1] 14981  2070

qog %>% group_by(cname) %>% summarise() # 211 pases

## # A tibble: 211 x 1
##                  cname
##                  <chr>
##  1         Afghanistan
##  2             Albania
##  3             Algeria
##  4             Andorra
##  5              Angola
##  6 Antigua and Barbuda
##  7           Argentina
##  8             Armenia
##  9           Australia
## 10             Austria
## # ... with 201 more rows

qog %>% group_by(year) %>% summarise() # 71 aos pases

## # A tibble: 71 x 1
##     year
##    <dbl>
##  1  1946
##  2  1947
##  3  1948
##  4  1949
##  5  1950
##  6  1951
##  7  1952
##  8  1953
##  9  1954
## 10  1955
## # ... with 61 more rows

211*71 # nmero de filas

## [1] 14981

    # Extract 2009 data
        qog2009=qog %>% filter(year==2009) %>% select(wdi_gini,cname)   
        qog2009 %>% group_by(cname) %>% na.omit() %>% summarise_all(mean)

## # A tibble: 74 x 2
##           cname wdi_gini
##           <chr>    <dbl>
##  1    Argentina    45.27
##  2      Armenia    29.58
##  3      Austria    31.50
##  4      Belarus    27.69
##  5      Belgium    28.70
##  6      Bolivia    49.65
##  7     Botswana    60.46
##  8       Brazil    53.87
##  9     Bulgaria    33.82
## 10 Burkina Faso    39.76
## # ... with 64 more rows

        names(qog2009)

## [1] "wdi_gini" "cname"

El procedimiento ahora corresponde a un merge, que como sabemos requiere un vector (variable) que identifique de la misma manera en ambas bases de datos a los casos presentes, en este caso pases.

En general no es fcil que en ambas bases de datos exista una columna que identifique de la misma manera a las unidades de nivel 2. Por ejemplo, si son pases, puede que estos se identifiquen por un cdigo diferente, o que sus nombres en algunos casos se escriban distinto (ej: con/sin acento, distintos idiomas,etc). Si este es el caso, la opcin ms bsica es la manual, es decir, generar una variable en alguna de las bases de datos a combinar que posea valores idnticos a los de la otra base de datos.

Por ejemplo, en la base ISSP la variable de identificacin de pas es v5, que posee un cdigo y un valor:

issp2009r %>% group_by("Country"=to_label(v5)) %>% summarise("Country code"=mean(v5))

## # A tibble: 41 x 2
##         Country `Country code`
##          <fctr>          <dbl>
##  1 AR-Argentina             32
##  2 AU-Australia             36
##  3   AT-Austria             40
##  4   BE-Belgium             56
##  5  BG-Bulgaria            100
##  6     CL-Chile            152
##  7     CN-China            156
##  8    TW-Taiwan            158
##  9   HR-Croatia            191
## 10    CY-Cyprus            196
## # ... with 31 more rows

En base a esto, se puede generar una variable en la base qog con estos mismos cdigos para los pases:

str(qog2009$cname)

##  atomic [1:211] Afghanistan Albania Algeria Andorra ...
##  - attr(*, "label")= chr "Country Name"
##  - attr(*, "format.stata")= chr "%29s"

qog2009 %>% group_by(cname) 

## # A tibble: 211 x 2
## # Groups:   cname [211]
##    wdi_gini               cname
##       <dbl>               <chr>
##  1       NA         Afghanistan
##  2       NA             Albania
##  3       NA             Algeria
##  4       NA             Andorra
##  5       NA              Angola
##  6       NA Antigua and Barbuda
##  7       NA          Azerbaijan
##  8    45.27           Argentina
##  9       NA           Australia
## 10    31.50             Austria
## # ... with 201 more rows
…
Luego, cuando la variable est lista, se puede hacer el merge. Pero antes de mostrar el procedimiento de merge, veamos otra posibilidad que nos ahorra la recodificacin al trabajar con pases, que es mediante la librera countrycode, diseada especficamente para estos casos. Para utilizarla, se requiere tener claro los formatos de las variables de input y de output. En este caso, el input es la variable que viene en la base de datos (nombre de los pases en qog2009),y queremos el output con los cdigos en que vienen los pases en ISSP (v5).

La base ISSP (ver codebook) sigue el estandar ISO-3166 para los cdigos y labels de los pases, que es uno de los formatos tradicionales para codificar pases. Este entonces es el output que queremos generar en la base qog2009 para luego realizar el merge.

pacman::p_load(countrycode)
qog2009$v5=countrycode(qog2009$cname, 'country.name','iso3n') # iso3n es ISO-3,para detalles ver documentacin librera ?countrycode

## Warning in countrycode(qog2009$cname, "country.name", "iso3n"): Some values were not matched unambiguously: Germany, East, Germany, West, Korea, North, Micronesia, Serbia and Montenegro, Tibet, Yemen, North, Yugoslavia

## Warning in countrycode(qog2009$cname, "country.name", "iso3n"): Some strings were matched more than once, and therefore set to <NA> in the result: Germany, West,280,276

qog2009 %>% group_by(v5) %>%  select(v5,cname) %>% slice(1:10)

## # A tibble: 211 x 2
## # Groups:   v5 [195]
##       v5               cname
##    <int>               <chr>
##  1     4         Afghanistan
##  2     8             Albania
##  3    12             Algeria
##  4    20             Andorra
##  5    24              Angola
##  6    28 Antigua and Barbuda
##  7    31          Azerbaijan
##  8    32           Argentina
##  9    36           Australia
## 10    40             Austria
## # ... with 201 more rows

(Se generan algunos warnings por pases no transformados, tener en cuenta por si luego falta informacin).

Ahora que tenemos una variable identica para los pases en ambas bases de datos, es posible realizar el merge de ambas bases:

data_tot <- merge(issp2009r,qog2009,by=c("v5"))

# Para ver el resultado
  data_tot %>% group_by("Country"=cname) %>% summarise("Country code"=mean(v5),"Gini"=mean(wdi_gini)) 

## # A tibble: 44 x 3
##           Country `Country code`  Gini
##             <chr>          <dbl> <dbl>
##  1      Argentina             32 45.27
##  2      Australia             36    NA
##  3        Austria             40 31.50
##  4        Belgium             56 28.70
##  5       Bulgaria            100 33.82
##  6          Chile            152 52.00
##  7          China            156    NA
##  8        Croatia            191 33.18
##  9 Cyprus (-1974)            196    NA
## 10 Cyprus (1975-)            196 32.11
## # ... with 34 more rows
…
